Week 11 Notes
…
We imagine that a thief has taken four books  Great Expectations, Twenty Thousand Leagues Under The Sea, War of the Worlds, and Pride & Prejudice  and torn all the chapters out.

We are left with pieces of isolated pieces of text and have to determine from which book they are from.

The block below downloads all the books into an R object.

titles <- c("Twenty Thousand Leagues under the Sea", 
            "The War of the Worlds",
            "Pride and Prejudice", 
            "Great Expectations")
books <- gutenberg_works(title %in% titles) %>%
  gutenberg_download(meta_fields = "title")
books

## # A tibble: 53,205 x 3
##    gutenberg_id text                                            title           
##           <int> <chr>                                           <chr>           
##  1           36 "The War of the Worlds"                         The War of the ~
##  2           36 ""                                              The War of the ~
##  3           36 "by H. G. Wells [1898]"                         The War of the ~
##  4           36 ""                                              The War of the ~
##  5           36 ""                                              The War of the ~
##  6           36 "     But who shall dwell in these worlds if t~ The War of the ~
##  7           36 "     inhabited? .  .  .  Are we or they Lords~ The War of the ~
##  8           36 "     World? .  .  .  And how are all things m~ The War of the ~
##  9           36 "          KEPLER (quoted in The Anatomy of Me~ The War of the ~
## 10           36 ""                                              The War of the ~
## # ... with 53,195 more rows
…
To fit LDA, we only need counts of each word within each chapter  the algorithm throws away information related to word order.

To derive word counts

We first split the raw text into separate words using the unest_tokens function in the tidytext package.

Then, we can count the number of times each word appeared in each document using count, a shortcut for the usual group_by and summarize(n = n()) pattern.

word_counts <- by_chapter %>%
  unnest_tokens(word, text) %>%
  anti_join(stop_words) %>%
  count(document, word) # shortcut for group_by(document, word) %>% summarise(n = n())
word_counts

## # A tibble: 105,750 x 3
##    document               word             n
##    <chr>                  <chr>        <int>
##  1 Great Expectations_0   1867             1
##  2 Great Expectations_0   charles          1
##  3 Great Expectations_0   contents         1
##  4 Great Expectations_0   dickens          1
##  5 Great Expectations_0   edition          1
##  6 Great Expectations_0   expectations     1
##  7 Great Expectations_0   illustration     1
##  8 Great Expectations_100 age              1
##  9 Great Expectations_100 arose            1
## 10 Great Expectations_100 barnards        1
## # ... with 105,740 more rows
…
For visualization, it will be easiest to extract these parameters using the tidy function, specifying whether we want the topics (beta) or memberships (gamma).

topics <- tidy(chapters_lda, matrix = "beta")
memberships <- tidy(chapters_lda, matrix = "gamma")

This tidy approach is preferable to extracting the parameters directly from the fitted model (e.g., using chapters_lda@gamma) because it ensures the output is a tidy data.frame, rather than a matrix.

Tidy data.frames are easier to visualize using ggplot2.

# highest weight words per topic
topics %>%
  arrange(topic, -beta)

## # A tibble: 73,296 x 3
##    topic term        beta
##    <int> <chr>      <dbl>
##  1     1 captain  0.0154 
##  2     1 nautilus 0.0130 
##  3     1 sea      0.00897
##  4     1 nemo     0.00871
##  5     1 ned      0.00803
##  6     1 conseil  0.00680
##  7     1 land     0.00607
##  8     1 water    0.00605
##  9     1 sir      0.00492
## 10     1 day      0.00371
## # ... with 73,286 more rows

# topic memberships per document
memberships %>%
  arrange(document, topic)

## # A tibble: 816 x 3
##    document               topic     gamma
##    <chr>                  <int>     <dbl>
##  1 Great Expectations_0       1 0.00227  
##  2 Great Expectations_0       2 0.00227  
##  3 Great Expectations_0       3 0.00227  
##  4 Great Expectations_0       4 0.993    
##  5 Great Expectations_100     1 0.000340 
##  6 Great Expectations_100     2 0.000340 
##  7 Great Expectations_100     3 0.999    
##  8 Great Expectations_100     4 0.000340 
##  9 Great Expectations_101     1 0.0000112
## 10 Great Expectations_101     2 0.00725  
## # ... with 806 more rows
…
To illustrate this broad applicability, this lecture will consider an example from gene expression analysis.

The dataset we consider comes from the GTEX consortium. A variety of tissue samples have been subject to RNA-seq analysis, which measures how much of each type of gene is expressed within each sample. Intuitively, we relate,

Documents  Tissue samples

Words  Genes

Word Counts  Gene expression levels

x <- read_csv("https://uwmadison.box.com/shared/static/fd437om519i5mrnur14xy6dq3ls0yqt2.csv")
x

## # A tibble: 2,000,000 x 6
##    sample             gene         tissue tissue_detail        Description value
##    <chr>              <chr>        <chr>  <chr>                <chr>       <dbl>
##  1 GTEX-NFK9-0926-SM~ ENSG0000000~ Heart  Heart - Left Ventri~ FGR           368
##  2 GTEX-OXRO-0011-R1~ ENSG0000000~ Brain  Brain - Frontal Cor~ FGR           593
##  3 GTEX-QLQ7-0526-SM~ ENSG0000000~ Heart  Heart - Left Ventri~ FGR           773
##  4 GTEX-POMQ-0326-SM~ ENSG0000000~ Heart  Heart - Left Ventri~ FGR           330
##  5 GTEX-QESD-0526-SM~ ENSG0000000~ Heart  Heart - Left Ventri~ FGR           357
##  6 GTEX-OHPN-0011-R4~ ENSG0000000~ Brain  Brain - Amygdala     FGR           571
##  7 GTEX-OHPK-0326-SM~ ENSG0000000~ Heart  Heart - Left Ventri~ FGR           391
##  8 GTEX-OIZG-1126-SM~ ENSG0000000~ Heart  Heart - Left Ventri~ FGR           425
##  9 GTEX-O5YW-0326-SM~ ENSG0000000~ Heart  Heart - Left Ventri~ FGR           172
## 10 GTEX-REY6-1026-SM~ ENSG0000000~ Heart  Heart - Left Ventri~ FGR           875
## # ... with 1,999,990 more rows
…
